MRMCaov for R User Guide
…
Arguments

x: object from roc_curves() for which to compute points on the curves.

metric: character string specifying "specificity" or "sensitivity" as the reader performance metric to which values correspond.

values: numeric vector of values at which to compute ROC curve points, or NULL for default empirical values as determined by which.

which: character string indicating whether to use curve-specific observed values and 0 and 1 ("curve"), the combination of these values over all curves ("curves"), or only the observed curve-specific values ("observed").

## Extract points at given specificities
curve_spec_pts <- points(curves, metric = "spec", values = c(0.5, 0.7, 0.9))
print(curve_spec_pts)

## # A tibble: 30 × 3
##    Group$Treatment $Reader   FPR   TPR
##  * <fct>           <fct>   <dbl> <dbl>
##  1 1               1         0.1 0.862
##  2 1               1         0.3 0.908
##  3 1               1         0.5 0.935
##  4 2               1         0.1 0.843
##  5 2               1         0.3 0.966
##  6 2               1         0.5 0.978
##  7 1               2         0.1 0.747
##  8 1               2         0.3 0.821
##  9 1               2         0.5 0.872
## 10 2               2         0.1 0.821
## # … with 20 more rows
…
## Extract points at given sensitivities
curve_sens_pts <- points(curves, metric = "sens", values = c(0.5, 0.7, 0.9))
print(curve_sens_pts)

## # A tibble: 30 × 3
##    Group$Treatment $Reader    FPR   TPR
##  * <fct>           <fct>    <dbl> <dbl>
##  1 1               1       0.0116   0.5
##  2 1               1       0.0246   0.7
##  3 1               1       0.254    0.9
##  4 2               1       0        0.5
##  5 2               1       0        0.7
##  6 2               1       0.337    0.9
##  7 1               2       0.0130   0.5
##  8 1               2       0.0543   0.7
##  9 1               2       0.609    0.9
## 10 2               2       0        0.5
## # … with 20 more rows
…
## Average specificities at given sensitivities
curves_mean <- mean(curves, metric = "sens")
print(curves_mean)

## # A tibble: 23 × 2
##        FPR   TPR
##  *   <dbl> <dbl>
##  1 0       0    
##  2 0.00698 0.511
##  3 0.00804 0.556
##  4 0.00899 0.578
##  5 0.00995 0.6  
##  6 0.0109  0.622
##  7 0.0214  0.667
##  8 0.0280  0.689
##  9 0.0358  0.711
## 10 0.0450  0.733
## # … with 13 more rows
…
